mc20_13TeV.600465.PhPy8EG_PDF4LHC15_HHbbWW2l_cHHH01d0.deriv.DAOD_PHYSLITE.e8222_s3681_r13167_p5855
mc20_13TeV.600469.PhPy8EG_PDF4LHC15_HHbbZZ2l_cHHH01d0.deriv.DAOD_PHYSLITE.e8222_s3681_r13167_p5855
mc20_13TeV.600467.PhPy8EG_PDF4LHC15_HHbbtt2l_cHHH01d0.deriv.DAOD_PHYSLITE.e8222_s3681_r13167_p5855
mc20_13TeV.600465.PhPy8EG_PDF4LHC15_HHbbWW2l_cHHH01d0.deriv.DAOD_PHYSLITE.e8222_s3681_r13145_p5855
mc20_13TeV.600469.PhPy8EG_PDF4LHC15_HHbbZZ2l_cHHH01d0.deriv.DAOD_PHYSLITE.e8222_s3681_r13145_p5855
mc20_13TeV.600467.PhPy8EG_PDF4LHC15_HHbbtt2l_cHHH01d0.deriv.DAOD_PHYSLITE.e8222_s3681_r13145_p5855
