mc20_13TeV.542859.MGPy8EG_ttgammagamma_allhad_LO.deriv.DAOD_PHYSLITE.e8551_s3797_r13167_p6490
mc20_13TeV.542859.MGPy8EG_ttgammagamma_allhad_LO.deriv.DAOD_PHYSLITE.e8551_s3797_r13144_p6490
mc20_13TeV.542859.MGPy8EG_ttgammagamma_allhad_LO.deriv.DAOD_PHYSLITE.e8551_s3797_r13145_p6490
