mc20_13TeV.525386.MGPy8EG_hh_bbyy_vbf_novhh_l1cvv1cv1p5_5fns.deriv.DAOD_PHYSLITE.e8555_a907_r14859_p6490
mc20_13TeV.525386.MGPy8EG_hh_bbyy_vbf_novhh_l1cvv1cv1p5_5fns.deriv.DAOD_PHYSLITE.e8555_a907_r14860_p6490
mc20_13TeV.525386.MGPy8EG_hh_bbyy_vbf_novhh_l1cvv1cv1p5_5fns.deriv.DAOD_PHYSLITE.e8555_a907_r14861_p6490
