mc20_13TeV.603558.PhPy8EG_PDF4LHC21_HHbbyy_chhh0p0.deriv.DAOD_PHYSLITE.e8564_a907_r14859_p6490
mc20_13TeV.603558.PhPy8EG_PDF4LHC21_HHbbyy_chhh0p0.deriv.DAOD_PHYSLITE.e8564_a907_r14860_p6490
mc20_13TeV.603558.PhPy8EG_PDF4LHC21_HHbbyy_chhh0p0.deriv.DAOD_PHYSLITE.e8564_a907_r14861_p6490
