mc20_13TeV.700711.Sh_2214_yybb_90Myy175.deriv.DAOD_PHYSLITE.e8557_a907_r14859_p6490
mc20_13TeV.700711.Sh_2214_yybb_90Myy175.deriv.DAOD_PHYSLITE.e8557_a907_r14860_p6490
mc20_13TeV.700711.Sh_2214_yybb_90Myy175.deriv.DAOD_PHYSLITE.e8557_a907_r14861_p6490
