mc23_13p6TeV.513111.MGPy8EG_Ztautau_FxFx3jHT2bias_SW_BFilter.deriv.DAOD_PHYSLITE.e8514_s4162_r14622_p6026
mc23_13p6TeV.513111.MGPy8EG_Ztautau_FxFx3jHT2bias_SW_BFilter.deriv.DAOD_PHYSLITE.e8514_s4159_r14799_p5855
mc23_13p6TeV.513112.MGPy8EG_Ztautau_FxFx3jHT2bias_SW_CFilterBVeto.deriv.DAOD_PHYSLITE.e8514_s4162_r14622_p6026
mc23_13p6TeV.513112.MGPy8EG_Ztautau_FxFx3jHT2bias_SW_CFilterBVeto.deriv.DAOD_PHYSLITE.e8514_s4159_r14799_p5855
mc23_13p6TeV.513113.MGPy8EG_Ztautau_FxFx3jHT2bias_SW_CVetoBVeto.deriv.DAOD_PHYSLITE.e8514_s4162_r14622_p6026
mc23_13p6TeV.513113.MGPy8EG_Ztautau_FxFx3jHT2bias_SW_CVetoBVeto.deriv.DAOD_PHYSLITE.e8514_s4159_r14799_p5855
