# ggF SM Py8
mc20_13TeV.600862.PhPy8EG_NNPDF30NLO_HHML_bbZZ4l_1LcHHH01d0.deriv.DAOD_PHYSLITE.e8339_s3681_r13144_p6266
mc20_13TeV.600862.PhPy8EG_NNPDF30NLO_HHML_bbZZ4l_1LcHHH01d0.deriv.DAOD_PHYSLITE.e8339_s3681_r13145_p6266
mc20_13TeV.600862.PhPy8EG_NNPDF30NLO_HHML_bbZZ4l_1LcHHH01d0.deriv.DAOD_PHYSLITE.e8339_s3681_r13167_p6266

mc20_13TeV.600853.PhPy8EG_NNPDF30NLO_HHML_2l0tau_1LcHHH01d0.deriv.DAOD_PHYSLITE.e8273_s3681_r13144_p6266
mc20_13TeV.600853.PhPy8EG_NNPDF30NLO_HHML_2l0tau_1LcHHH01d0.deriv.DAOD_PHYSLITE.e8273_s3681_r13145_p6266
mc20_13TeV.600853.PhPy8EG_NNPDF30NLO_HHML_2l0tau_1LcHHH01d0.deriv.DAOD_PHYSLITE.e8273_s3681_r13167_p6266

mc20_13TeV.600854.PhPy8EG_NNPDF30NLO_HHML_2l1tau_1LcHHH01d0.deriv.DAOD_PHYSLITE.e8273_s3681_r13144_p6266
mc20_13TeV.600854.PhPy8EG_NNPDF30NLO_HHML_2l1tau_1LcHHH01d0.deriv.DAOD_PHYSLITE.e8273_s3681_r13145_p6266
mc20_13TeV.600854.PhPy8EG_NNPDF30NLO_HHML_2l1tau_1LcHHH01d0.deriv.DAOD_PHYSLITE.e8273_s3681_r13167_p6266

mc20_13TeV.600855.PhPy8EG_NNPDF30NLO_HHML_3l0tau_1LcHHH01d0.deriv.DAOD_PHYSLITE.e8273_s3681_r13144_p6266
mc20_13TeV.600855.PhPy8EG_NNPDF30NLO_HHML_3l0tau_1LcHHH01d0.deriv.DAOD_PHYSLITE.e8273_s3681_r13145_p6266
mc20_13TeV.600855.PhPy8EG_NNPDF30NLO_HHML_3l0tau_1LcHHH01d0.deriv.DAOD_PHYSLITE.e8273_s3681_r13167_p6266

mc20_13TeV.600856.PhPy8EG_NNPDF30NLO_HHML_3l1tau_1LcHHH01d0.deriv.DAOD_PHYSLITE.e8273_s3681_r13144_p6266
mc20_13TeV.600856.PhPy8EG_NNPDF30NLO_HHML_3l1tau_1LcHHH01d0.deriv.DAOD_PHYSLITE.e8273_s3681_r13145_p6266
mc20_13TeV.600856.PhPy8EG_NNPDF30NLO_HHML_3l1tau_1LcHHH01d0.deriv.DAOD_PHYSLITE.e8273_s3681_r13167_p6266

mc20_13TeV.600857.PhPy8EG_NNPDF30NLO_HHML_4l0tau_1LcHHH01d0.deriv.DAOD_PHYSLITE.e8273_s3681_r13144_p6266
mc20_13TeV.600857.PhPy8EG_NNPDF30NLO_HHML_4l0tau_1LcHHH01d0.deriv.DAOD_PHYSLITE.e8273_s3681_r13145_p6266
mc20_13TeV.600857.PhPy8EG_NNPDF30NLO_HHML_4l0tau_1LcHHH01d0.deriv.DAOD_PHYSLITE.e8273_s3681_r13167_p6266

mc20_13TeV.600858.PhPy8EG_NNPDF30NLO_HHML_4l1tau_1LcHHH01d0.deriv.DAOD_PHYSLITE.e8273_s3681_r13144_p6266
mc20_13TeV.600858.PhPy8EG_NNPDF30NLO_HHML_4l1tau_1LcHHH01d0.deriv.DAOD_PHYSLITE.e8273_s3681_r13145_p6266
mc20_13TeV.600858.PhPy8EG_NNPDF30NLO_HHML_4l1tau_1LcHHH01d0.deriv.DAOD_PHYSLITE.e8273_s3681_r13167_p6266

# SM ggF Herwig7

mc20_13TeV.600762.PhH7EG_hh_bbZZ_4l_cHHH01d0.deriv.DAOD_PHYSLITE.e8186_s3681_r13144_p6266
mc20_13TeV.600762.PhH7EG_hh_bbZZ_4l_cHHH01d0.deriv.DAOD_PHYSLITE.e8186_s3681_r13145_p6266
mc20_13TeV.600762.PhH7EG_hh_bbZZ_4l_cHHH01d0.deriv.DAOD_PHYSLITE.e8186_s3681_r13167_p6266

mc20_13TeV.600536.PhH7EG_hh_multilepton_2l0tau_cHHH01d0.deriv.DAOD_PHYSLITE.e8186_s3681_r13144_p6266
mc20_13TeV.600536.PhH7EG_hh_multilepton_2l0tau_cHHH01d0.deriv.DAOD_PHYSLITE.e8186_s3681_r13145_p6266
mc20_13TeV.600536.PhH7EG_hh_multilepton_2l0tau_cHHH01d0.deriv.DAOD_PHYSLITE.e8186_s3681_r13167_p6266

mc20_13TeV.600537.PhH7EG_hh_multilepton_2l1tau_cHHH01d0.deriv.DAOD_PHYSLITE.e8186_s3681_r13144_p6266
mc20_13TeV.600537.PhH7EG_hh_multilepton_2l1tau_cHHH01d0.deriv.DAOD_PHYSLITE.e8186_s3681_r13145_p6266
mc20_13TeV.600537.PhH7EG_hh_multilepton_2l1tau_cHHH01d0.deriv.DAOD_PHYSLITE.e8186_s3681_r13167_p6266

mc20_13TeV.600538.PhH7EG_hh_multilepton_3l0tau_cHHH01d0.deriv.DAOD_PHYSLITE.e8186_s3681_r13144_p6266
mc20_13TeV.600538.PhH7EG_hh_multilepton_3l0tau_cHHH01d0.deriv.DAOD_PHYSLITE.e8186_s3681_r13145_p6266
mc20_13TeV.600538.PhH7EG_hh_multilepton_3l0tau_cHHH01d0.deriv.DAOD_PHYSLITE.e8186_s3681_r13167_p6266

mc20_13TeV.600539.PhH7EG_hh_multilepton_3l1tau_cHHH01d0.deriv.DAOD_PHYSLITE.e8186_s3681_r13144_p6266
mc20_13TeV.600539.PhH7EG_hh_multilepton_3l1tau_cHHH01d0.deriv.DAOD_PHYSLITE.e8186_s3681_r13145_p6266
mc20_13TeV.600539.PhH7EG_hh_multilepton_3l1tau_cHHH01d0.deriv.DAOD_PHYSLITE.e8186_s3681_r13167_p6266

mc20_13TeV.600540.PhH7EG_hh_multilepton_4l0tau_cHHH01d0.deriv.DAOD_PHYSLITE.e8186_s3681_r13144_p6266
mc20_13TeV.600540.PhH7EG_hh_multilepton_4l0tau_cHHH01d0.deriv.DAOD_PHYSLITE.e8186_s3681_r13145_p6266
mc20_13TeV.600540.PhH7EG_hh_multilepton_4l0tau_cHHH01d0.deriv.DAOD_PHYSLITE.e8186_s3681_r13167_p6266

mc20_13TeV.600541.PhH7EG_hh_multilepton_4l1tau_cHHH01d0.deriv.DAOD_PHYSLITE.e8186_s3681_r13144_p6266
mc20_13TeV.600541.PhH7EG_hh_multilepton_4l1tau_cHHH01d0.deriv.DAOD_PHYSLITE.e8186_s3681_r13145_p6266
mc20_13TeV.600541.PhH7EG_hh_multilepton_4l1tau_cHHH01d0.deriv.DAOD_PHYSLITE.e8186_s3681_r13167_p6266

