dataset_number/I:physics_short/C:crossSection_pb/D:kFactor/D:genFiltEff/D:relUncertUP/D:relUncertDOWN/D
600021  PhPy8EG_PDF4LHC15_HHbbyy_cHHH01d0                          8.13588E-05  1.0  1.0  0.0  0.0
600022  PhPy8EG_PDF4LHC15_HHbbyy_cHHH10d0                          1.69539E-03  1.0  1.0  0.0  0.0
603558  PhPy8EG_PDF4LHC21_HHbbyy_chhh0p0                           1.81279E-04  1.0  1.0  0.0  0.0
603559  PhPy8EG_PDF4LHC21_HHbbyy_chhh1p0                           8.13588E-05  1.0  1.0  0.0  0.0
603560  PhPy8EG_PDF4LHC21_HHbbyy_chhh5p0                           2.40137E-04  1.0  1.0  0.0  0.0
603695  PhPy8EG_PDF4LHC21_HHbbyy_chhh2p5                           3.61343E-05  1.0  1.0  0.0  0.0
603696  PhPy8EG_PDF4LHC21_HHbbyy_chhh10p0                          1.69539E-03  1.0  1.0  0.0  0.0
603697  PhPy8EG_PDF4LHC21_HHbbyy_chhhm1p0                          3.37122E-04  1.0  1.0  0.0  0.0
503004  MGPy8EG_hh_bbyy_vbf_novhh_l1cvv1cv1                        4.46059E-06  1.0  1.0  0.0  0.0
503007  MGPy8EG_hh_bbyy_vbf_novhh_l1cvv1p5cv1                      8.38707E-06  1.0  1.0  0.0  0.0
503011  MGPy8EG_hh_bbyy_vbf_novhh_l2cvv1cv1                        4.03225E-06  1.0  1.0  0.0  0.0
503012  MGPy8EG_hh_bbyy_vbf_novhh_l10cvv1cv1                       2.46937E-04  1.0  1.0  0.0  0.0
503013  MGPy8EG_hh_bbyy_vbf_novhh_l1cvv1cv0p5                      2.72263E-05  1.0  1.0  0.0  0.0
508689  MGPy8EG_hh_bbyy_vbf_novhh_lm5cvv1cv0p5                     1.62004E-05  1.0  1.0  0.0  0.0
525376  MGPy8EG_hh_bbyy_vbf_novhh_l1cvv1cv1_5fns                   4.46059E-06  1.0  1.0  0.0  0.0
525377  MGPy8EG_hh_bbyy_vbf_novhh_l0cvv1cv1_5fns                   1.17054E-05  1.0  1.0  0.0  0.0
525378  MGPy8EG_hh_bbyy_vbf_novhh_l2cvv1cv1_5fns                   4.03225E-06  1.0  1.0  0.0  0.0
525379  MGPy8EG_hh_bbyy_vbf_novhh_l10cvv1cv1_5fns                  2.46937E-04  1.0  1.0  0.0  0.0
525380	MGPy8EG_hh_bbyy_vbf_novhh_l1cvv0cv1_5fns                   6.77999E-05  1.0  1.0  0.0  0.0
525381	MGPy8EG_hh_bbyy_vbf_novhh_l1cvv0p5cv1_5fns                 2.42185E-05  1.0  1.0  0.0  0.0
525382	MGPy8EG_hh_bbyy_vbf_novhh_l1cvv1p5cv1_5fns                 8.38707E-06  1.0  1.0  0.0  0.0
525383  MGPy8EG_hh_bbyy_vbf_novhh_l1cvv2cv1_5fns                   3.60417E-05  1.0  1.0  0.0  0.0
525384  MGPy8EG_hh_bbyy_vbf_novhh_l1cvv3cv1_5fns                   1.62273E-04  1.0  1.0  0.0  0.0
525385  MGPy8EG_hh_bbyy_vbf_novhh_l1cvv1cv0p5_5fns                 2.72263E-05  1.0  1.0  0.0  0.0
525386	MGPy8EG_hh_bbyy_vbf_novhh_l1cvv1cv1p5_5fns                 1.66030E-04  1.0  1.0  0.0  0.0
525387	MGPy8EG_hh_bbyy_vbf_novhh_l0cvv0cv1_5fns                   9.25195E-05  1.0  1.0  0.0  0.0
525388	MGPy8EG_hh_bbyy_vbf_novhh_lm5cvv1cv0p5_5fns                1.62004E-05  1.0  1.0  0.0  0.0
343981  PowhegPythia8EvtGen_NNLOPS_nnlo_30_ggH125_gamgam           1.10277E-01  1.0  1.0  0.0  0.0
346214  PowhegPy8EG_NNPDF30_AZNLOCTEQ6L1_VBFH125_gamgam            8.58514E-03  1.0  1.0  0.0  0.0
345318  PowhegPythia8EvtGen_NNPDF30_AZNLO_WpH125J_Hyy_Wincl_MINLO  1.90680E-03  1.0  1.0  0.0  0.0
345317  PowhegPythia8EvtGen_NNPDF30_AZNLO_WmH125J_Hyy_Wincl_MINLO  1.20946E-03  1.0  1.0  0.0  0.0
345319  PowhegPythia8EvtGen_NNPDF30_AZNLO_ZH125J_Hyy_Zincl_MINLO   1.72792E-03  1.0  1.0  0.0  0.0
345061  PowhegPythia8EvtGen_NNPDF3_AZNLO_ggZH125_HgamgamZinc       2.78529E-04  1.0  1.0  0.0  0.0
345315  PowhegPythia8EvtGen_A14NNPDF23LO_bbHyy                     1.10776E-03   1.0  1.0  0.0  0.0
346525  PowhegPythia8EvtGen_A14NNPDF23_NNPDF30ME_ttH125_gamgam     1.15112E-03  1.0  1.0  0.0  0.0
346677  aMcAtNloPythia8EvtGen_tHjb125_4fl_CPalpha_0_gamgam         1.68548E-04  1.0  1.0  0.0  0.0
346759  aMcAtNloPythia8EvtGen_tWH125_CPalpha_0_gamgam              3.44359E-05  1.0  1.0  0.0  0.0
545636  aMCPy8EG_tHjb125_4fl_gammagamma                            1.68548E-04  1.0  1.0  0.0  0.0
545639  aMCPy8EG_tWH125_gammagamma                                 3.44359E-05  1.0  1.0  0.0  0.0
508781  MGPy8EG_ttyy_nonallhad_LO                                  6.4820E-03   1.0  1.0  0.0  0.0
800898  Py8EG_A14NNPDF23LO_XHS_X180_S050_HyySbb                    1.0E-03      1.0  1.0  0.0  0.0
800899  Py8EG_A14NNPDF23LO_XHS_X200_S070_HyySbb                    1.0E-03      1.0  1.0  0.0  0.0
800900  Py8EG_A14NNPDF23LO_XHS_X220_S090_HyySbb                    1.0E-03      1.0  1.0  0.0  0.0
800901  Py8EG_A14NNPDF23LO_XHS_X230_S100_HyySbb                    1.0E-03      1.0  1.0  0.0  0.0
800902  Py8EG_A14NNPDF23LO_XHS_X240_S110_HyySbb                    1.0E-03      1.0  1.0  0.0  0.0
800903  Py8EG_A14NNPDF23LO_XHS_X250_S100_HyySbb                    1.0E-03      1.0  1.0  0.0  0.0
800904  Py8EG_A14NNPDF23LO_XHS_X170_S030_HyySbb                    1.0E-03      1.0  1.0  0.0  0.0
800905  Py8EG_A14NNPDF23LO_XHS_X190_S050_HyySbb                    1.0E-03      1.0  1.0  0.0  0.0
800906  Py8EG_A14NNPDF23LO_XHS_X210_S070_HyySbb                    1.0E-03      1.0  1.0  0.0  0.0
800907  Py8EG_A14NNPDF23LO_XHS_X230_S090_HyySbb                    1.0E-03      1.0  1.0  0.0  0.0
800908  Py8EG_A14NNPDF23LO_XHS_X240_S100_HyySbb                    1.0E-03      1.0  1.0  0.0  0.0
800909  Py8EG_A14NNPDF23LO_XHS_X250_S110_HyySbb                    1.0E-03      1.0  1.0  0.0  0.0
800910  Py8EG_A14NNPDF23LO_XHS_X185_S030_HyySbb                    1.0E-03      1.0  1.0  0.0  0.0
800911  Py8EG_A14NNPDF23LO_XHS_X205_S050_HyySbb                    1.0E-03      1.0  1.0  0.0  0.0
800912  Py8EG_A14NNPDF23LO_XHS_X225_S070_HyySbb                    1.0E-03      1.0  1.0  0.0  0.0
800913  Py8EG_A14NNPDF23LO_XHS_X245_S090_HyySbb                    1.0E-03      1.0  1.0  0.0  0.0
800914  Py8EG_A14NNPDF23LO_XHS_X190_S015_HyySbb                    1.0E-03      1.0  1.0  0.0  0.0
800915  Py8EG_A14NNPDF23LO_XHS_X205_S030_HyySbb                    1.0E-03      1.0  1.0  0.0  0.0
800916  Py8EG_A14NNPDF23LO_XHS_X225_S050_HyySbb                    1.0E-03      1.0  1.0  0.0  0.0
800917  Py8EG_A14NNPDF23LO_XHS_X245_S070_HyySbb                    1.0E-03      1.0  1.0  0.0  0.0
800918  Py8EG_A14NNPDF23LO_XHS_X210_S015_HyySbb                    1.0E-03      1.0  1.0  0.0  0.0
800919  Py8EG_A14NNPDF23LO_XHS_X225_S030_HyySbb                    1.0E-03      1.0  1.0  0.0  0.0
800920  Py8EG_A14NNPDF23LO_XHS_X245_S050_HyySbb                    1.0E-03      1.0  1.0  0.0  0.0
800921  Py8EG_A14NNPDF23LO_XHS_X230_S015_HyySbb                    1.0E-03      1.0  1.0  0.0  0.0
800922  Py8EG_A14NNPDF23LO_XHS_X245_S030_HyySbb                    1.0E-03      1.0  1.0  0.0  0.0
800923  Py8EG_A14NNPDF23LO_XHS_X250_S015_HyySbb                    1.0E-03      1.0  1.0  0.0  0.0
801337  Py8EG_A14NNPDF23LO_XHS_X300_S170_HyySbb                    1.0E-03      1.0  1.0  0.0  0.0
801338  Py8EG_A14NNPDF23LO_XHS_X400_S170_HyySbb                    1.0E-03      1.0  1.0  0.0  0.0
801339  Py8EG_A14NNPDF23LO_XHS_X500_S170_HyySbb                    1.0E-03      1.0  1.0  0.0  0.0
801340  Py8EG_A14NNPDF23LO_XHS_X600_S170_HyySbb                    1.0E-03      1.0  1.0  0.0  0.0
801341  Py8EG_A14NNPDF23LO_XHS_X1000_S170_HyySbb                    1.0E-03      1.0  1.0  0.0  0.0
801342  Py8EG_A14NNPDF23LO_XHS_X400_S200_HyySbb                    1.0E-03      1.0  1.0  0.0  0.0
801343  Py8EG_A14NNPDF23LO_XHS_X500_S200_HyySbb                    1.0E-03      1.0  1.0  0.0  0.0
801344  Py8EG_A14NNPDF23LO_XHS_X600_S200_HyySbb                    1.0E-03      1.0  1.0  0.0  0.0
801345  Py8EG_A14NNPDF23LO_XHS_X1000_S200_HyySbb                    1.0E-03      1.0  1.0  0.0  0.0
801346  Py8EG_A14NNPDF23LO_XHS_X500_S300_HyySbb                    1.0E-03      1.0  1.0  0.0  0.0
801347  Py8EG_A14NNPDF23LO_XHS_X600_S300_HyySbb                    1.0E-03      1.0  1.0  0.0  0.0
801348  Py8EG_A14NNPDF23LO_XHS_X1000_S300_HyySbb                    1.0E-03      1.0  1.0  0.0  0.0
801349  Py8EG_A14NNPDF23LO_XHS_X600_S400_HyySbb                    1.0E-03      1.0  1.0  0.0  0.0
801350  Py8EG_A14NNPDF23LO_XHS_X1000_S400_HyySbb                    1.0E-03      1.0  1.0  0.0  0.0
801351  Py8EG_A14NNPDF23LO_XHS_X1000_S500_HyySbb                    1.0E-03      1.0  1.0  0.0  0.0
801352  Py8EG_A14NNPDF23LO_XHS_X300_S30_HyySbb                    1.0E-03      1.0  1.0  0.0  0.0
801353  Py8EG_A14NNPDF23LO_XHS_X400_S30_HyySbb                    1.0E-03      1.0  1.0  0.0  0.0
801354  Py8EG_A14NNPDF23LO_XHS_X500_S30_HyySbb                    1.0E-03      1.0  1.0  0.0  0.0
801355  Py8EG_A14NNPDF23LO_XHS_X300_S70_HyySbb                    1.0E-03      1.0  1.0  0.0  0.0
801356  Py8EG_A14NNPDF23LO_XHS_X400_S70_HyySbb                    1.0E-03      1.0  1.0  0.0  0.0
801357  Py8EG_A14NNPDF23LO_XHS_X500_S70_HyySbb                    1.0E-03      1.0  1.0  0.0  0.0
801358  Py8EG_A14NNPDF23LO_XHS_X600_S70_HyySbb                    1.0E-03      1.0  1.0  0.0  0.0
801359  Py8EG_A14NNPDF23LO_XHS_X1000_S70_HyySbb                    1.0E-03      1.0  1.0  0.0  0.0
801360  Py8EG_A14NNPDF23LO_XHS_X300_S110_HyySbb                    1.0E-03      1.0  1.0  0.0  0.0
801361  Py8EG_A14NNPDF23LO_XHS_X400_S110_HyySbb                    1.0E-03      1.0  1.0  0.0  0.0
801362  Py8EG_A14NNPDF23LO_XHS_X500_S110_HyySbb                    1.0E-03      1.0  1.0  0.0  0.0
801363  Py8EG_A14NNPDF23LO_XHS_X600_S110_HyySbb                    1.0E-03      1.0  1.0  0.0  0.0
801364  Py8EG_A14NNPDF23LO_XHS_X1000_S110_HyySbb                    1.0E-03      1.0  1.0  0.0  0.0
801365  Py8EG_A14NNPDF23LO_XHS_X750_S70_HyySbb                    1.0E-03      1.0  1.0  0.0  0.0
801366  Py8EG_A14NNPDF23LO_XHS_X750_S110_HyySbb                    1.0E-03      1.0  1.0  0.0  0.0
801367  Py8EG_A14NNPDF23LO_XHS_X750_S170_HyySbb                    1.0E-03      1.0  1.0  0.0  0.0
801368  Py8EG_A14NNPDF23LO_XHS_X750_S200_HyySbb                    1.0E-03      1.0  1.0  0.0  0.0
801369  Py8EG_A14NNPDF23LO_XHS_X750_S300_HyySbb                    1.0E-03      1.0  1.0  0.0  0.0
801370  Py8EG_A14NNPDF23LO_XHS_X750_S400_HyySbb                    1.0E-03      1.0  1.0  0.0  0.0
801371  Py8EG_A14NNPDF23LO_XHS_X750_S500_HyySbb                    1.0E-03      1.0  1.0  0.0  0.0
801937  Py8EG_A14NNPDF23LO_XHS_X400_S250_HyySbb                    1.0E-03      1.0  1.0  0.0  0.0
801938  Py8EG_A14NNPDF23LO_XHS_X500_S325_HyySbb                    1.0E-03      1.0  1.0  0.0  0.0
801939  Py8EG_A14NNPDF23LO_XHS_X600_S40_HyySbb                    1.0E-03      1.0  1.0  0.0  0.0
801940  Py8EG_A14NNPDF23LO_XHS_X750_S50_HyySbb                    1.0E-03      1.0  1.0  0.0  0.0
801941  Py8EG_A14NNPDF23LO_XHS_X900_S600_HyySbb                    1.0E-03      1.0  1.0  0.0  0.0
801942  Py8EG_A14NNPDF23LO_XHS_X350_S170_HyySbb                    1.0E-03      1.0  1.0  0.0  0.0
801943  Py8EG_A14NNPDF23LO_XHS_X675_S400_HyySbb                    1.0E-03      1.0  1.0  0.0  0.0
801944  Py8EG_A14NNPDF23LO_XHS_X875_S200_HyySbb                    1.0E-03      1.0  1.0  0.0  0.0
801993  Py8EG_A14NNPDF23LO_XHS_X650_S90_HyySbb                    1.0E-03      1.0  1.0  0.0  0.0
801994  Py8EG_A14NNPDF23LO_XHS_X575_S200_HyySbb                    1.0E-03      1.0  1.0  0.0  0.0
802073  Py8EG_A14NNPDF23LO_XHS_X177_S30_HyySbb                    1.0E-03      1.0  1.0  0.0  0.0
802074  Py8EG_A14NNPDF23LO_XHS_X177_S40_HyySbb                    1.0E-03      1.0  1.0  0.0  0.0
802075  Py8EG_A14NNPDF23LO_XHS_X185_S40_HyySbb                    1.0E-03      1.0  1.0  0.0  0.0
802076  Py8EG_A14NNPDF23LO_XHS_X185_S50_HyySbb                    1.0E-03      1.0  1.0  0.0  0.0
802077  Py8EG_A14NNPDF23LO_XHS_X195_S30_HyySbb                    1.0E-03      1.0  1.0  0.0  0.0
802078  Py8EG_A14NNPDF23LO_XHS_X195_S40_HyySbb                    1.0E-03      1.0  1.0  0.0  0.0
802079  Py8EG_A14NNPDF23LO_XHS_X195_S50_HyySbb                    1.0E-03      1.0  1.0  0.0  0.0
802080  Py8EG_A14NNPDF23LO_XHS_X195_S60_HyySbb                    1.0E-03      1.0  1.0  0.0  0.0
802081  Py8EG_A14NNPDF23LO_XHS_X205_S40_HyySbb                    1.0E-03      1.0  1.0  0.0  0.0
802082  Py8EG_A14NNPDF23LO_XHS_X205_S60_HyySbb                    1.0E-03      1.0  1.0  0.0  0.0
802083  Py8EG_A14NNPDF23LO_XHS_X205_S70_HyySbb                    1.0E-03      1.0  1.0  0.0  0.0
802084  Py8EG_A14NNPDF23LO_XHS_X215_S30_HyySbb                    1.0E-03      1.0  1.0  0.0  0.0
802085  Py8EG_A14NNPDF23LO_XHS_X215_S40_HyySbb                    1.0E-03      1.0  1.0  0.0  0.0
802086  Py8EG_A14NNPDF23LO_XHS_X215_S50_HyySbb                    1.0E-03      1.0  1.0  0.0  0.0
802087  Py8EG_A14NNPDF23LO_XHS_X215_S60_HyySbb                    1.0E-03      1.0  1.0  0.0  0.0
802088  Py8EG_A14NNPDF23LO_XHS_X215_S70_HyySbb                    1.0E-03      1.0  1.0  0.0  0.0
802089  Py8EG_A14NNPDF23LO_XHS_X215_S80_HyySbb                    1.0E-03      1.0  1.0  0.0  0.0
802090  Py8EG_A14NNPDF23LO_XHS_X225_S40_HyySbb                    1.0E-03      1.0  1.0  0.0  0.0
802091  Py8EG_A14NNPDF23LO_XHS_X225_S60_HyySbb                    1.0E-03      1.0  1.0  0.0  0.0
802092  Py8EG_A14NNPDF23LO_XHS_X225_S80_HyySbb                    1.0E-03      1.0  1.0  0.0  0.0
802093  Py8EG_A14NNPDF23LO_XHS_X225_S90_HyySbb                    1.0E-03      1.0  1.0  0.0  0.0
802094  Py8EG_A14NNPDF23LO_XHS_X235_S30_HyySbb                    1.0E-03      1.0  1.0  0.0  0.0
802095  Py8EG_A14NNPDF23LO_XHS_X235_S40_HyySbb                    1.0E-03      1.0  1.0  0.0  0.0
802096  Py8EG_A14NNPDF23LO_XHS_X235_S50_HyySbb                    1.0E-03      1.0  1.0  0.0  0.0
802097  Py8EG_A14NNPDF23LO_XHS_X235_S60_HyySbb                    1.0E-03      1.0  1.0  0.0  0.0
802098  Py8EG_A14NNPDF23LO_XHS_X235_S70_HyySbb                    1.0E-03      1.0  1.0  0.0  0.0
802099  Py8EG_A14NNPDF23LO_XHS_X235_S80_HyySbb                    1.0E-03      1.0  1.0  0.0  0.0
802100  Py8EG_A14NNPDF23LO_XHS_X235_S90_HyySbb                    1.0E-03      1.0  1.0  0.0  0.0
802101  Py8EG_A14NNPDF23LO_XHS_X245_S40_HyySbb                    1.0E-03      1.0  1.0  0.0  0.0
802102  Py8EG_A14NNPDF23LO_XHS_X245_S60_HyySbb                    1.0E-03      1.0  1.0  0.0  0.0
802103  Py8EG_A14NNPDF23LO_XHS_X245_S80_HyySbb                    1.0E-03      1.0  1.0  0.0  0.0
802104  Py8EG_A14NNPDF23LO_XHS_X260_S110_HyySbb                    1.0E-03      1.0  1.0  0.0  0.0
802105  Py8EG_A14NNPDF23LO_XHS_X260_S30_HyySbb                    1.0E-03      1.0  1.0  0.0  0.0
802106  Py8EG_A14NNPDF23LO_XHS_X260_S50_HyySbb                    1.0E-03      1.0  1.0  0.0  0.0
802107  Py8EG_A14NNPDF23LO_XHS_X260_S70_HyySbb                    1.0E-03      1.0  1.0  0.0  0.0
802108  Py8EG_A14NNPDF23LO_XHS_X260_S90_HyySbb                    1.0E-03      1.0  1.0  0.0  0.0
802109  Py8EG_A14NNPDF23LO_XHS_X275_S110_HyySbb                    1.0E-03      1.0  1.0  0.0  0.0
802110  Py8EG_A14NNPDF23LO_XHS_X275_S145_HyySbb                    1.0E-03      1.0  1.0  0.0  0.0
802111  Py8EG_A14NNPDF23LO_XHS_X275_S70_HyySbb                    1.0E-03      1.0  1.0  0.0  0.0
802112  Py8EG_A14NNPDF23LO_XHS_X275_S90_HyySbb                    1.0E-03      1.0  1.0  0.0  0.0
802113  Py8EG_A14NNPDF23LO_XHS_X287_S110_HyySbb                    1.0E-03      1.0  1.0  0.0  0.0
802114  Py8EG_A14NNPDF23LO_XHS_X287_S157_HyySbb                    1.0E-03      1.0  1.0  0.0  0.0
802115  Py8EG_A14NNPDF23LO_XHS_X287_S30_HyySbb                    1.0E-03      1.0  1.0  0.0  0.0
802116  Py8EG_A14NNPDF23LO_XHS_X287_S50_HyySbb                    1.0E-03      1.0  1.0  0.0  0.0
802117  Py8EG_A14NNPDF23LO_XHS_X287_S70_HyySbb                    1.0E-03      1.0  1.0  0.0  0.0
802118  Py8EG_A14NNPDF23LO_XHS_X287_S90_HyySbb                    1.0E-03      1.0  1.0  0.0  0.0
802119  Py8EG_A14NNPDF23LO_XHS_X300_S50_HyySbb                    1.0E-03      1.0  1.0  0.0  0.0
802120  Py8EG_A14NNPDF23LO_XHS_X325_S30_HyySbb                    1.0E-03      1.0  1.0  0.0  0.0
802121  Py8EG_A14NNPDF23LO_XHS_X325_S50_HyySbb                    1.0E-03      1.0  1.0  0.0  0.0
802122  Py8EG_A14NNPDF23LO_XHS_X325_S70_HyySbb                    1.0E-03      1.0  1.0  0.0  0.0
802123  Py8EG_A14NNPDF23LO_XHS_X350_S30_HyySbb                    1.0E-03      1.0  1.0  0.0  0.0
802124  Py8EG_A14NNPDF23LO_XHS_X350_S50_HyySbb                    1.0E-03      1.0  1.0  0.0  0.0
802125  Py8EG_A14NNPDF23LO_XHS_X350_S70_HyySbb                    1.0E-03      1.0  1.0  0.0  0.0
802126  Py8EG_A14NNPDF23LO_XHS_X375_S30_HyySbb                    1.0E-03      1.0  1.0  0.0  0.0
802127  Py8EG_A14NNPDF23LO_XHS_X375_S50_HyySbb                    1.0E-03      1.0  1.0  0.0  0.0
802128  Py8EG_A14NNPDF23LO_XHS_X375_S70_HyySbb                    1.0E-03      1.0  1.0  0.0  0.0
802129  Py8EG_A14NNPDF23LO_XHS_X400_S50_HyySbb                    1.0E-03      1.0  1.0  0.0  0.0
802130  Py8EG_A14NNPDF23LO_XHS_X425_S30_HyySbb                    1.0E-03      1.0  1.0  0.0  0.0
802131  Py8EG_A14NNPDF23LO_XHS_X425_S50_HyySbb                    1.0E-03      1.0  1.0  0.0  0.0
802132  Py8EG_A14NNPDF23LO_XHS_X425_S70_HyySbb                    1.0E-03      1.0  1.0  0.0  0.0
802133  Py8EG_A14NNPDF23LO_XHS_X450_S30_HyySbb                    1.0E-03      1.0  1.0  0.0  0.0
802134  Py8EG_A14NNPDF23LO_XHS_X450_S50_HyySbb                    1.0E-03      1.0  1.0  0.0  0.0
802135  Py8EG_A14NNPDF23LO_XHS_X450_S70_HyySbb                    1.0E-03      1.0  1.0  0.0  0.0
802136  Py8EG_A14NNPDF23LO_XHS_X475_S30_HyySbb                    1.0E-03      1.0  1.0  0.0  0.0
802137  Py8EG_A14NNPDF23LO_XHS_X475_S50_HyySbb                    1.0E-03      1.0  1.0  0.0  0.0
802138  Py8EG_A14NNPDF23LO_XHS_X475_S70_HyySbb                    1.0E-03      1.0  1.0  0.0  0.0
802139  Py8EG_A14NNPDF23LO_XHS_X500_S50_HyySbb                    1.0E-03      1.0  1.0  0.0  0.0
802140  Py8EG_A14NNPDF23LO_XHS_X525_S40_HyySbb                    1.0E-03      1.0  1.0  0.0  0.0
802141  Py8EG_A14NNPDF23LO_XHS_X525_S50_HyySbb                    1.0E-03      1.0  1.0  0.0  0.0
802142  Py8EG_A14NNPDF23LO_XHS_X525_S70_HyySbb                    1.0E-03      1.0  1.0  0.0  0.0
802143  Py8EG_A14NNPDF23LO_XHS_X550_S40_HyySbb                    1.0E-03      1.0  1.0  0.0  0.0
802144  Py8EG_A14NNPDF23LO_XHS_X550_S50_HyySbb                    1.0E-03      1.0  1.0  0.0  0.0
802145  Py8EG_A14NNPDF23LO_XHS_X550_S70_HyySbb                    1.0E-03      1.0  1.0  0.0  0.0
802146  Py8EG_A14NNPDF23LO_XHS_X575_S40_HyySbb                    1.0E-03      1.0  1.0  0.0  0.0
802147  Py8EG_A14NNPDF23LO_XHS_X575_S50_HyySbb                    1.0E-03      1.0  1.0  0.0  0.0
802148  Py8EG_A14NNPDF23LO_XHS_X575_S70_HyySbb                    1.0E-03      1.0  1.0  0.0  0.0
802149  Py8EG_A14NNPDF23LO_XHS_X600_S50_HyySbb                    1.0E-03      1.0  1.0  0.0  0.0
802150  Py8EG_A14NNPDF23LO_XHS_X650_S50_HyySbb                    1.0E-03      1.0  1.0  0.0  0.0
802151  Py8EG_A14NNPDF23LO_XHS_X650_S520_HyySbb                    1.0E-03      1.0  1.0  0.0  0.0
802152  Py8EG_A14NNPDF23LO_XHS_X650_S70_HyySbb                    1.0E-03      1.0  1.0  0.0  0.0
802153  Py8EG_A14NNPDF23LO_XHS_X700_S50_HyySbb                    1.0E-03      1.0  1.0  0.0  0.0
802154  Py8EG_A14NNPDF23LO_XHS_X700_S570_HyySbb                    1.0E-03      1.0  1.0  0.0  0.0
802155  Py8EG_A14NNPDF23LO_XHS_X700_S70_HyySbb                    1.0E-03      1.0  1.0  0.0  0.0
802156  Py8EG_A14NNPDF23LO_XHS_X800_S70_HyySbb                    1.0E-03      1.0  1.0  0.0  0.0
802157  Py8EG_A14NNPDF23LO_XHS_X850_S70_HyySbb                    1.0E-03      1.0  1.0  0.0  0.0
802158  Py8EG_A14NNPDF23LO_XHS_X900_S70_HyySbb                    1.0E-03      1.0  1.0  0.0  0.0
802159  Py8EG_A14NNPDF23LO_XHS_X950_S70_HyySbb                    1.0E-03      1.0  1.0  0.0  0.0
802160  Py8EG_A14NNPDF23LO_XHS_X950_S90_HyySbb                    1.0E-03      1.0  1.0  0.0  0.0
802161  Py8EG_A14NNPDF23LO_XHS_X1000_S90_HyySbb                    1.0E-03      1.0  1.0  0.0  0.0
802162  Py8EG_A14NNPDF23LO_XHS_X200_S15_HyySbb                    1.0E-03      1.0  1.0  0.0  0.0
802163  Py8EG_A14NNPDF23LO_XHS_X220_S15_HyySbb                    1.0E-03      1.0  1.0  0.0  0.0
802164  Py8EG_A14NNPDF23LO_XHS_X240_S15_HyySbb                    1.0E-03      1.0  1.0  0.0  0.0
802165  Py8EG_A14NNPDF23LO_XHS_X275_S50_HyySbb                    1.0E-03      1.0  1.0  0.0  0.0
802166  Py8EG_A14NNPDF23LO_XHS_X275_S30_HyySbb                    1.0E-03      1.0  1.0  0.0  0.0
