# ggF AF3
mc20_13TeV.603403.PhPy8EG_PDF4LHC21_HHbbbb_chhh0p0.deriv.DAOD_PHYS.e8564_a907_r14859_p6490
mc20_13TeV.603403.PhPy8EG_PDF4LHC21_HHbbbb_chhh0p0.deriv.DAOD_PHYS.e8564_a907_r14860_p6490
mc20_13TeV.603403.PhPy8EG_PDF4LHC21_HHbbbb_chhh0p0.deriv.DAOD_PHYS.e8564_a907_r14861_p6490
mc20_13TeV.603404.PhPy8EG_PDF4LHC21_HHbbbb_chhh1p0.deriv.DAOD_PHYS.e8564_a907_r14859_p6490
mc20_13TeV.603404.PhPy8EG_PDF4LHC21_HHbbbb_chhh1p0.deriv.DAOD_PHYS.e8564_a907_r14860_p6490
mc20_13TeV.603404.PhPy8EG_PDF4LHC21_HHbbbb_chhh1p0.deriv.DAOD_PHYS.e8564_a907_r14861_p6490
mc20_13TeV.603405.PhPy8EG_PDF4LHC21_HHbbbb_chhh5p0.deriv.DAOD_PHYS.e8564_a907_r14859_p6490
mc20_13TeV.603405.PhPy8EG_PDF4LHC21_HHbbbb_chhh5p0.deriv.DAOD_PHYS.e8564_a907_r14860_p6490
mc20_13TeV.603405.PhPy8EG_PDF4LHC21_HHbbbb_chhh5p0.deriv.DAOD_PHYS.e8564_a907_r14861_p6490
mc20_13TeV.603406.PhPy8EG_PDF4LHC21_HHbbbb_chhh10p0.deriv.DAOD_PHYS.e8564_a907_r14859_p6490
mc20_13TeV.603406.PhPy8EG_PDF4LHC21_HHbbbb_chhh10p0.deriv.DAOD_PHYS.e8564_a907_r14860_p6490
mc20_13TeV.603406.PhPy8EG_PDF4LHC21_HHbbbb_chhh10p0.deriv.DAOD_PHYS.e8564_a907_r14861_p6490
mc20_13TeV.603407.PhPy8EG_PDF4LHC21_HHbbbb_chhh2p5.deriv.DAOD_PHYS.e8564_a907_r14859_p6490
mc20_13TeV.603407.PhPy8EG_PDF4LHC21_HHbbbb_chhh2p5.deriv.DAOD_PHYS.e8564_a907_r14860_p6490
mc20_13TeV.603407.PhPy8EG_PDF4LHC21_HHbbbb_chhh2p5.deriv.DAOD_PHYS.e8564_a907_r14861_p6490
mc20_13TeV.603408.PhPy8EG_PDF4LHC21_HHbbbb_chhhm1p0.deriv.DAOD_PHYS.e8564_a907_r14859_p6490
mc20_13TeV.603408.PhPy8EG_PDF4LHC21_HHbbbb_chhhm1p0.deriv.DAOD_PHYS.e8564_a907_r14860_p6490
mc20_13TeV.603408.PhPy8EG_PDF4LHC21_HHbbbb_chhhm1p0.deriv.DAOD_PHYS.e8564_a907_r14861_p6490
# ggF FullSim
mc20_13TeV.603404.PhPy8EG_PDF4LHC21_HHbbbb_chhh1p0.deriv.DAOD_PHYS.e8564_s3797_r13144_p6490
mc20_13TeV.603404.PhPy8EG_PDF4LHC21_HHbbbb_chhh1p0.deriv.DAOD_PHYS.e8564_s3797_r13145_p6490
mc20_13TeV.603404.PhPy8EG_PDF4LHC21_HHbbbb_chhh1p0.deriv.DAOD_PHYS.e8564_s3797_r13167_p6490

# VBF
mc20_13TeV.537533.MGPy8EG_hh_bbbb_vbf_novhh_5fs_l0cvv0cv1.deriv.DAOD_PHYS.e8555_a907_r14859_p6490
mc20_13TeV.537533.MGPy8EG_hh_bbbb_vbf_novhh_5fs_l0cvv0cv1.deriv.DAOD_PHYS.e8555_a907_r14860_p6490
mc20_13TeV.537533.MGPy8EG_hh_bbbb_vbf_novhh_5fs_l0cvv0cv1.deriv.DAOD_PHYS.e8555_a907_r14861_p6490
mc20_13TeV.537534.MGPy8EG_hh_bbbb_vbf_novhh_5fs_l0cvv1cv1.deriv.DAOD_PHYS.e8555_a907_r14859_p6490
mc20_13TeV.537534.MGPy8EG_hh_bbbb_vbf_novhh_5fs_l0cvv1cv1.deriv.DAOD_PHYS.e8555_a907_r14860_p6490
mc20_13TeV.537534.MGPy8EG_hh_bbbb_vbf_novhh_5fs_l0cvv1cv1.deriv.DAOD_PHYS.e8555_a907_r14861_p6490
mc20_13TeV.537535.MGPy8EG_hh_bbbb_vbf_novhh_5fs_l10cvv1cv1.deriv.DAOD_PHYS.e8555_a907_r14859_p6490
mc20_13TeV.537535.MGPy8EG_hh_bbbb_vbf_novhh_5fs_l10cvv1cv1.deriv.DAOD_PHYS.e8555_a907_r14860_p6490
mc20_13TeV.537535.MGPy8EG_hh_bbbb_vbf_novhh_5fs_l10cvv1cv1.deriv.DAOD_PHYS.e8555_a907_r14861_p6490
mc20_13TeV.537536.MGPy8EG_hh_bbbb_vbf_novhh_5fs_l1cvv0cv1.deriv.DAOD_PHYS.e8555_a907_r14859_p6490
mc20_13TeV.537536.MGPy8EG_hh_bbbb_vbf_novhh_5fs_l1cvv0cv1.deriv.DAOD_PHYS.e8555_a907_r14860_p6490
mc20_13TeV.537536.MGPy8EG_hh_bbbb_vbf_novhh_5fs_l1cvv0cv1.deriv.DAOD_PHYS.e8555_a907_r14861_p6490
mc20_13TeV.537537.MGPy8EG_hh_bbbb_vbf_novhh_5fs_l1cvv0p5cv1.deriv.DAOD_PHYS.e8555_a907_r14859_p6490
mc20_13TeV.537537.MGPy8EG_hh_bbbb_vbf_novhh_5fs_l1cvv0p5cv1.deriv.DAOD_PHYS.e8555_a907_r14860_p6490
mc20_13TeV.537537.MGPy8EG_hh_bbbb_vbf_novhh_5fs_l1cvv0p5cv1.deriv.DAOD_PHYS.e8555_a907_r14861_p6490
mc20_13TeV.537538.MGPy8EG_hh_bbbb_vbf_novhh_5fs_l1cvv1cv0p5.deriv.DAOD_PHYS.e8555_a907_r14859_p6490
mc20_13TeV.537538.MGPy8EG_hh_bbbb_vbf_novhh_5fs_l1cvv1cv0p5.deriv.DAOD_PHYS.e8555_a907_r14860_p6490
mc20_13TeV.537538.MGPy8EG_hh_bbbb_vbf_novhh_5fs_l1cvv1cv0p5.deriv.DAOD_PHYS.e8555_a907_r14861_p6490
mc20_13TeV.537539.MGPy8EG_hh_bbbb_vbf_novhh_5fs_l1cvv1cv1p5.deriv.DAOD_PHYS.e8555_a907_r14859_p6490
mc20_13TeV.537539.MGPy8EG_hh_bbbb_vbf_novhh_5fs_l1cvv1cv1p5.deriv.DAOD_PHYS.e8555_a907_r14860_p6490
mc20_13TeV.537539.MGPy8EG_hh_bbbb_vbf_novhh_5fs_l1cvv1cv1p5.deriv.DAOD_PHYS.e8555_a907_r14861_p6490
mc20_13TeV.537540.MGPy8EG_hh_bbbb_vbf_novhh_5fs_l1cvv1cv1.deriv.DAOD_PHYS.e8555_a907_r14859_p6490
mc20_13TeV.537540.MGPy8EG_hh_bbbb_vbf_novhh_5fs_l1cvv1cv1.deriv.DAOD_PHYS.e8555_a907_r14860_p6490
mc20_13TeV.537540.MGPy8EG_hh_bbbb_vbf_novhh_5fs_l1cvv1cv1.deriv.DAOD_PHYS.e8555_a907_r14861_p6490
mc20_13TeV.537541.MGPy8EG_hh_bbbb_vbf_novhh_5fs_l1cvv1p5cv1.deriv.DAOD_PHYS.e8555_a907_r14859_p6490
mc20_13TeV.537541.MGPy8EG_hh_bbbb_vbf_novhh_5fs_l1cvv1p5cv1.deriv.DAOD_PHYS.e8555_a907_r14860_p6490
mc20_13TeV.537541.MGPy8EG_hh_bbbb_vbf_novhh_5fs_l1cvv1p5cv1.deriv.DAOD_PHYS.e8555_a907_r14861_p6490
mc20_13TeV.537542.MGPy8EG_hh_bbbb_vbf_novhh_5fs_l1cvv2cv1.deriv.DAOD_PHYS.e8555_a907_r14859_p6490
mc20_13TeV.537542.MGPy8EG_hh_bbbb_vbf_novhh_5fs_l1cvv2cv1.deriv.DAOD_PHYS.e8555_a907_r14860_p6490
mc20_13TeV.537542.MGPy8EG_hh_bbbb_vbf_novhh_5fs_l1cvv2cv1.deriv.DAOD_PHYS.e8555_a907_r14861_p6490
mc20_13TeV.537543.MGPy8EG_hh_bbbb_vbf_novhh_5fs_l1cvv3cv1.deriv.DAOD_PHYS.e8555_a907_r14859_p6490
mc20_13TeV.537543.MGPy8EG_hh_bbbb_vbf_novhh_5fs_l1cvv3cv1.deriv.DAOD_PHYS.e8555_a907_r14860_p6490
mc20_13TeV.537543.MGPy8EG_hh_bbbb_vbf_novhh_5fs_l1cvv3cv1.deriv.DAOD_PHYS.e8555_a907_r14861_p6490
mc20_13TeV.537544.MGPy8EG_hh_bbbb_vbf_novhh_5fs_l2cvv1cv1.deriv.DAOD_PHYS.e8555_a907_r14859_p6490
mc20_13TeV.537544.MGPy8EG_hh_bbbb_vbf_novhh_5fs_l2cvv1cv1.deriv.DAOD_PHYS.e8555_a907_r14860_p6490
mc20_13TeV.537544.MGPy8EG_hh_bbbb_vbf_novhh_5fs_l2cvv1cv1.deriv.DAOD_PHYS.e8555_a907_r14861_p6490
mc20_13TeV.537545.MGPy8EG_hh_bbbb_vbf_novhh_5fs_l5mcvv1cv0p5.deriv.DAOD_PHYS.e8555_a907_r14859_p6490
mc20_13TeV.537545.MGPy8EG_hh_bbbb_vbf_novhh_5fs_l5mcvv1cv0p5.deriv.DAOD_PHYS.e8555_a907_r14860_p6490
mc20_13TeV.537545.MGPy8EG_hh_bbbb_vbf_novhh_5fs_l5mcvv1cv0p5.deriv.DAOD_PHYS.e8555_a907_r14861_p6490
